<svg xmlns="http://www.w3.org/2000/svg" xmlns:xlink="http://www.w3.org/1999/xlink"
     width="100.964341pt" height="147.490471pt" viewBox="-.299738 -.248234 100.964341 147.490471">
<defs>
<path id="g0-0" d="M7.878456-2.749689C8.081694-2.749689 8.296887-2.749689 8.296887-2.988792S8.081694-3.227895 7.878456-3.227895H1.41071C1.207472-3.227895 .992279-3.227895 .992279-2.988792S1.207472-2.749689 1.41071-2.749689H7.878456Z"/>
<path id="g3-40" d="M3.88543 2.905106C3.88543 2.86924 3.88543 2.84533 3.682192 2.642092C2.486675 1.43462 1.817186-.537983 1.817186-2.976837C1.817186-5.296139 2.379078-7.292653 3.765878-8.703362C3.88543-8.810959 3.88543-8.834869 3.88543-8.870735C3.88543-8.942466 3.825654-8.966376 3.777833-8.966376C3.622416-8.966376 2.642092-8.105604 2.056289-6.933998C1.446575-5.726526 1.171606-4.447323 1.171606-2.976837C1.171606-1.912827 1.338979-.490162 1.960648 .789041C2.666002 2.223661 3.646326 3.000747 3.777833 3.000747C3.825654 3.000747 3.88543 2.976837 3.88543 2.905106Z"/>
<path id="g3-41" d="M3.371357-2.976837C3.371357-3.88543 3.251806-5.36787 2.582316-6.75467C1.876961-8.18929 .896638-8.966376 .765131-8.966376C.71731-8.966376 .657534-8.942466 .657534-8.870735C.657534-8.834869 .657534-8.810959 .860772-8.607721C2.056289-7.400249 2.725778-5.427646 2.725778-2.988792C2.725778-.669489 2.163885 1.327024 .777086 2.737733C.657534 2.84533 .657534 2.86924 .657534 2.905106C.657534 2.976837 .71731 3.000747 .765131 3.000747C.920548 3.000747 1.900872 2.139975 2.486675 .968369C3.096389-.251059 3.371357-1.542217 3.371357-2.976837Z"/>
<path id="g3-43" d="M4.770112-2.761644H8.069738C8.237111-2.761644 8.452304-2.761644 8.452304-2.976837C8.452304-3.203985 8.249066-3.203985 8.069738-3.203985H4.770112V-6.503611C4.770112-6.670984 4.770112-6.886177 4.554919-6.886177C4.327771-6.886177 4.327771-6.682939 4.327771-6.503611V-3.203985H1.028144C.860772-3.203985 .645579-3.203985 .645579-2.988792C.645579-2.761644 .848817-2.761644 1.028144-2.761644H4.327771V.537983C4.327771 .705355 4.327771 .920548 4.542964 .920548C4.770112 .920548 4.770112 .71731 4.770112 .537983V-2.761644Z"/>
<path id="g3-59" d="M2.199751-4.578829C2.199751-4.901619 1.924782-5.152677 1.625903-5.152677C1.279203-5.152677 1.0401-4.877709 1.0401-4.578829C1.0401-4.220174 1.338979-3.993026 1.613948-3.993026C1.936737-3.993026 2.199751-4.244085 2.199751-4.578829ZM1.996513-.119552C1.996513 .298879 1.996513 1.147696 1.267248 2.044334C1.195517 2.139975 1.195517 2.163885 1.195517 2.187796C1.195517 2.247572 1.255293 2.307347 1.315068 2.307347C1.398755 2.307347 2.235616 1.422665 2.235616 .02391C2.235616-.418431 2.199751-1.159651 1.613948-1.159651C1.267248-1.159651 1.0401-.896638 1.0401-.585803C1.0401-.263014 1.267248 0 1.625903 0C1.853051 0 1.936737-.071731 1.996513-.119552Z"/>
<path id="g3-61" d="M8.069738-3.873474C8.237111-3.873474 8.452304-3.873474 8.452304-4.088667C8.452304-4.315816 8.249066-4.315816 8.069738-4.315816H1.028144C.860772-4.315816 .645579-4.315816 .645579-4.100623C.645579-3.873474 .848817-3.873474 1.028144-3.873474H8.069738ZM8.069738-1.649813C8.237111-1.649813 8.452304-1.649813 8.452304-1.865006C8.452304-2.092154 8.249066-2.092154 8.069738-2.092154H1.028144C.860772-2.092154 .645579-2.092154 .645579-1.876961C.645579-1.649813 .848817-1.649813 1.028144-1.649813H8.069738Z"/>
<path id="g2-49" d="M2.502615-5.076961C2.502615-5.292154 2.486675-5.300125 2.271482-5.300125C1.944707-4.98132 1.522291-4.790037 .765131-4.790037V-4.527024C.980324-4.527024 1.41071-4.527024 1.872976-4.742217V-.653549C1.872976-.358655 1.849066-.263014 1.091905-.263014H.812951V0C1.139726-.02391 1.825156-.02391 2.183811-.02391S3.235866-.02391 3.56264 0V-.263014H3.283686C2.526526-.263014 2.502615-.358655 2.502615-.653549V-5.076961Z"/>
<path id="g2-50" d="M2.247572-1.625903C2.375093-1.745455 2.709838-2.008468 2.83736-2.12005C3.331507-2.574346 3.801743-3.012702 3.801743-3.737983C3.801743-4.686426 3.004732-5.300125 2.008468-5.300125C1.052055-5.300125 .422416-4.574844 .422416-3.865504C.422416-3.474969 .73325-3.419178 .844832-3.419178C1.012204-3.419178 1.259278-3.53873 1.259278-3.841594C1.259278-4.25604 .860772-4.25604 .765131-4.25604C.996264-4.837858 1.530262-5.037111 1.920797-5.037111C2.662017-5.037111 3.044583-4.407472 3.044583-3.737983C3.044583-2.909091 2.462765-2.303362 1.522291-1.338979L.518057-.302864C.422416-.215193 .422416-.199253 .422416 0H3.57061L3.801743-1.42665H3.55467C3.53076-1.267248 3.466999-.868742 3.371357-.71731C3.323537-.653549 2.717808-.653549 2.590286-.653549H1.171606L2.247572-1.625903Z"/>
<path id="g2-51" d="M2.016438-2.662017C2.646077-2.662017 3.044583-2.199751 3.044583-1.362889C3.044583-.366625 2.478705-.071731 2.056289-.071731C1.617933-.071731 1.020174-.231133 .74122-.653549C1.028144-.653549 1.227397-.836862 1.227397-1.099875C1.227397-1.354919 1.044085-1.538232 .789041-1.538232C.573848-1.538232 .350685-1.40274 .350685-1.083935C.350685-.326775 1.163636 .167372 2.072229 .167372C3.132254 .167372 3.873474-.565878 3.873474-1.362889C3.873474-2.024408 3.347447-2.630137 2.534496-2.805479C3.164134-3.028643 3.634371-3.57061 3.634371-4.208219S2.917061-5.300125 2.088169-5.300125C1.235367-5.300125 .589788-4.837858 .589788-4.23213C.589788-3.937235 .789041-3.809714 .996264-3.809714C1.243337-3.809714 1.40274-3.985056 1.40274-4.216189C1.40274-4.511083 1.147696-4.622665 .972354-4.630635C1.307098-5.068991 1.920797-5.092902 2.064259-5.092902C2.271482-5.092902 2.87721-5.029141 2.87721-4.208219C2.87721-3.650311 2.646077-3.315567 2.534496-3.188045C2.295392-2.940971 2.11208-2.925031 1.625903-2.893151C1.474471-2.885181 1.41071-2.87721 1.41071-2.773599C1.41071-2.662017 1.482441-2.662017 1.617933-2.662017H2.016438Z"/>
<path id="g2-52" d="M3.140224-5.156663C3.140224-5.316065 3.140224-5.379826 2.972852-5.379826C2.86924-5.379826 2.86127-5.371856 2.781569-5.260274L.239103-1.570112V-1.307098H2.486675V-.645579C2.486675-.350685 2.462765-.263014 1.849066-.263014H1.665753V0C2.343213-.02391 2.359153-.02391 2.81345-.02391S3.283686-.02391 3.961146 0V-.263014H3.777833C3.164134-.263014 3.140224-.350685 3.140224-.645579V-1.307098H3.985056V-1.570112H3.140224V-5.156663ZM2.542466-4.511083V-1.570112H.518057L2.542466-4.511083Z"/>
<path id="g2-53" d="M1.115816-4.479203C1.219427-4.447323 1.538232-4.367621 1.872976-4.367621C2.86924-4.367621 3.474969-5.068991 3.474969-5.188543C3.474969-5.276214 3.419178-5.300125 3.379328-5.300125C3.363387-5.300125 3.347447-5.300125 3.275716-5.260274C2.964882-5.140722 2.598257-5.045081 2.16787-5.045081C1.697634-5.045081 1.307098-5.164633 1.060025-5.260274C.980324-5.300125 .964384-5.300125 .956413-5.300125C.852802-5.300125 .852802-5.212453 .852802-5.068991V-2.733748C.852802-2.590286 .852802-2.494645 .980324-2.494645C1.044085-2.494645 1.067995-2.526526 1.107846-2.590286C1.203487-2.709838 1.506351-3.116314 2.183811-3.116314C2.630137-3.116314 2.84533-2.749689 2.917061-2.598257C3.052553-2.311333 3.068493-1.944707 3.068493-1.633873C3.068493-1.338979 3.060523-.908593 2.83736-.557908C2.685928-.318804 2.367123-.071731 1.944707-.071731C1.42665-.071731 .916563-.398506 .73325-.916563C.757161-.908593 .804981-.908593 .812951-.908593C1.036115-.908593 1.211457-1.052055 1.211457-1.299128C1.211457-1.594022 .980324-1.697634 .820922-1.697634C.67746-1.697634 .422416-1.617933 .422416-1.275218C.422416-.557908 1.044085 .167372 1.960648 .167372C2.956912 .167372 3.801743-.605729 3.801743-1.594022C3.801743-2.518555 3.132254-3.339477 2.191781-3.339477C1.793275-3.339477 1.41868-3.211955 1.115816-2.940971V-4.479203Z"/>
<path id="g2-54" d="M1.099875-2.638107C1.099875-3.299626 1.155666-3.881445 1.44259-4.367621C1.681694-4.766127 2.088169-5.092902 2.590286-5.092902C2.749689-5.092902 3.116314-5.068991 3.299626-4.790037C2.940971-4.774097 2.909091-4.503113 2.909091-4.415442C2.909091-4.176339 3.092403-4.040847 3.283686-4.040847C3.427148-4.040847 3.658281-4.128518 3.658281-4.431382C3.658281-4.909589 3.299626-5.300125 2.582316-5.300125C1.474471-5.300125 .350685-4.24807 .350685-2.526526C.350685-.366625 1.354919 .167372 2.12802 .167372C2.510585 .167372 2.925031 .063761 3.283686-.278954C3.602491-.589788 3.873474-.924533 3.873474-1.617933C3.873474-2.662017 3.084433-3.395268 2.199751-3.395268C1.625903-3.395268 1.283188-3.028643 1.099875-2.638107ZM2.12802-.071731C1.705604-.071731 1.44259-.366625 1.323039-.589788C1.139726-.948443 1.123786-1.490411 1.123786-1.793275C1.123786-2.582316 1.554172-3.172105 2.16787-3.172105C2.566376-3.172105 2.805479-2.964882 2.956912-2.685928C3.124284-2.391034 3.124284-2.032379 3.124284-1.625903S3.124284-.868742 2.964882-.581818C2.757659-.215193 2.478705-.071731 2.12802-.071731Z"/>
<path id="g2-55" d="M4.032877-4.853798C4.104608-4.941469 4.104608-4.95741 4.104608-5.132752H2.080199C1.880946-5.132752 1.633873-5.140722 1.43462-5.156663C1.020174-5.188543 1.012204-5.260274 .988294-5.387796H.74122L.470237-3.706102H.71731C.73325-3.825654 .820922-4.375592 .932503-4.439352C1.020174-4.479203 1.617933-4.479203 1.737484-4.479203H3.427148L2.606227-3.379328C1.697634-2.16787 1.506351-.908593 1.506351-.278954C1.506351-.199253 1.506351 .167372 1.880946 .167372S2.255542-.191283 2.255542-.286924V-.669489C2.255542-1.817186 2.446824-2.757659 2.83736-3.275716L4.032877-4.853798Z"/>
<path id="g2-56" d="M2.646077-2.87721C3.092403-3.092403 3.634371-3.490909 3.634371-4.112578C3.634371-4.869738 2.86127-5.300125 2.12005-5.300125C1.275218-5.300125 .589788-4.718306 .589788-3.969116C.589788-3.674222 .6934-3.403238 .892653-3.172105C1.028144-3.004732 1.060025-2.988792 1.554172-2.677958C.565878-2.239601 .350685-1.657783 .350685-1.211457C.350685-.334745 1.235367 .167372 2.10411 .167372C3.084433 .167372 3.873474-.494147 3.873474-1.338979C3.873474-1.841096 3.602491-2.175841 3.474969-2.311333C3.339477-2.438854 3.331507-2.446824 2.646077-2.87721ZM1.41071-3.626401C1.179577-3.761893 .988294-3.993026 .988294-4.27198C.988294-4.774097 1.538232-5.092902 2.10411-5.092902C2.725778-5.092902 3.235866-4.670486 3.235866-4.112578C3.235866-3.650311 2.87721-3.259776 2.406974-3.028643L1.41071-3.626401ZM1.801245-2.534496C1.833126-2.518555 2.741719-1.960648 2.87721-1.872976C3.004732-1.801245 3.419178-1.546202 3.419178-1.067995C3.419178-.454296 2.773599-.071731 2.12005-.071731C1.41071-.071731 .804981-.557908 .804981-1.211457C.804981-1.809215 1.251308-2.279452 1.801245-2.534496Z"/>
<path id="g1-58" d="M2.199751-.573848C2.199751-.920548 1.912827-1.159651 1.625903-1.159651C1.279203-1.159651 1.0401-.872727 1.0401-.585803C1.0401-.239103 1.327024 0 1.613948 0C1.960648 0 2.199751-.286924 2.199751-.573848Z"/>
<path id="g1-65" d="M2.032379-1.327024C1.613948-.621669 1.207472-.382565 .633624-.3467C.502117-.334745 .406476-.334745 .406476-.119552C.406476-.047821 .466252 0 .549938 0C.765131 0 1.303113-.02391 1.518306-.02391C1.865006-.02391 2.247572 0 2.582316 0C2.654047 0 2.797509 0 2.797509-.227148C2.797509-.334745 2.701868-.3467 2.630137-.3467C2.355168-.37061 2.12802-.466252 2.12802-.753176C2.12802-.920548 2.199751-1.052055 2.355168-1.315068L3.263761-2.82142H6.312329C6.324284-2.713823 6.324284-2.618182 6.336239-2.510585C6.372105-2.199751 6.515567-.956413 6.515567-.729265C6.515567-.37061 5.905853-.3467 5.71457-.3467C5.583064-.3467 5.451557-.3467 5.451557-.131507C5.451557 0 5.559153 0 5.630884 0C5.834122 0 6.073225-.02391 6.276463-.02391H6.957908C7.687173-.02391 8.2132 0 8.225156 0C8.308842 0 8.440349 0 8.440349-.227148C8.440349-.3467 8.332752-.3467 8.153425-.3467C7.49589-.3467 7.483935-.454296 7.44807-.812951L6.718804-8.272976C6.694894-8.51208 6.647073-8.53599 6.515567-8.53599C6.396015-8.53599 6.324284-8.51208 6.216687-8.332752L2.032379-1.327024ZM3.466999-3.16812L5.869988-7.185056L6.276463-3.16812H3.466999Z"/>
<path id="g1-66" d="M4.375592-7.352428C4.483188-7.79477 4.531009-7.81868 4.99726-7.81868H6.551432C7.902366-7.81868 7.902366-6.670984 7.902366-6.563387C7.902366-5.595019 6.933998-4.363636 5.355915-4.363636H3.634371L4.375592-7.352428ZM6.396015-4.267995C7.699128-4.507098 8.88269-5.415691 8.88269-6.515567C8.88269-7.44807 8.057783-8.16538 6.706849-8.16538H2.86924C2.642092-8.16538 2.534496-8.16538 2.534496-7.938232C2.534496-7.81868 2.642092-7.81868 2.82142-7.81868C3.550685-7.81868 3.550685-7.723039 3.550685-7.591532C3.550685-7.567621 3.550685-7.49589 3.502864-7.316563L1.888917-.884682C1.78132-.466252 1.75741-.3467 .920548-.3467C.6934-.3467 .573848-.3467 .573848-.131507C.573848 0 .645579 0 .884682 0H4.985305C6.814446 0 8.225156-1.3868 8.225156-2.594271C8.225156-3.574595 7.364384-4.172354 6.396015-4.267995ZM4.698381-.3467H3.084433C2.917061-.3467 2.893151-.3467 2.82142-.358655C2.689913-.37061 2.677958-.394521 2.677958-.490162C2.677958-.573848 2.701868-.645579 2.725778-.753176L3.56264-4.124533H5.810212C7.220922-4.124533 7.220922-2.809465 7.220922-2.713823C7.220922-1.566127 6.180822-.3467 4.698381-.3467Z"/>
<path id="g1-83" d="M7.591532-8.308842C7.591532-8.416438 7.507846-8.416438 7.483935-8.416438C7.436115-8.416438 7.424159-8.404483 7.280697-8.225156C7.208966-8.141469 6.718804-7.519801 6.706849-7.507846C6.312329-8.284932 5.523288-8.416438 5.021171-8.416438C3.502864-8.416438 2.12802-7.029639 2.12802-5.678705C2.12802-4.782067 2.666002-4.25604 3.251806-4.052802C3.383313-4.004981 4.088667-3.813699 4.447323-3.730012C5.057036-3.56264 5.212453-3.514819 5.463512-3.251806C5.511333-3.19203 5.750436-2.917061 5.750436-2.355168C5.750436-1.243337 4.722291-.095641 3.526775-.095641C2.546451-.095641 1.458531-.514072 1.458531-1.853051C1.458531-2.080199 1.506351-2.367123 1.542217-2.486675C1.542217-2.52254 1.554172-2.582316 1.554172-2.606227C1.554172-2.654047 1.530262-2.713823 1.43462-2.713823C1.327024-2.713823 1.315068-2.689913 1.267248-2.486675L.657534-.035866C.657534-.02391 .609714 .131507 .609714 .143462C.609714 .251059 .705355 .251059 .729265 .251059C.777086 .251059 .789041 .239103 .932503 .059776L1.482441-.657534C1.769365-.227148 2.391034 .251059 3.502864 .251059C5.045081 .251059 6.455791-1.243337 6.455791-2.737733C6.455791-3.239851 6.336239-3.682192 5.881943-4.124533C5.630884-4.375592 5.415691-4.435367 4.315816-4.722291C3.514819-4.937484 3.407223-4.97335 3.19203-5.164633C2.988792-5.36787 2.833375-5.654795 2.833375-6.06127C2.833375-7.065504 3.849564-8.093649 4.985305-8.093649C6.156912-8.093649 6.706849-7.376339 6.706849-6.240598C6.706849-5.929763 6.647073-5.606974 6.647073-5.559153C6.647073-5.451557 6.742715-5.451557 6.77858-5.451557C6.886177-5.451557 6.898132-5.487422 6.945953-5.678705L7.591532-8.308842Z"/>
</defs>
<g fill="#222" stroke="#222" style="fill: var(--color, #222); stroke: var(--color, #222);" stroke-width="0.3" transform="matrix(1.13 0 0 1.13 -80.23 -66.443952)">
<use x="70.734745" y="67.546657" xlink:href="#g1-83"/>
<use x="77.934085" y="69.33992" xlink:href="#g2-49"/>
<use x="85.987225" y="67.546657" xlink:href="#g3-61"/>
<use x="98.412706" y="67.546657" xlink:href="#g3-40"/>
<use x="102.965032" y="67.546657" xlink:href="#g1-65"/>
<use x="111.740378" y="69.33992" xlink:href="#g2-50"/>
<use x="115.974561" y="69.33992" xlink:href="#g2-49"/>
<use x="123.36354" y="67.546657" xlink:href="#g3-43"/>
<use x="135.124855" y="67.546657" xlink:href="#g1-65"/>
<use x="143.900201" y="69.33992" xlink:href="#g2-50"/>
<use x="148.134384" y="69.33992" xlink:href="#g2-50"/>
<use x="152.866699" y="67.546657" xlink:href="#g3-41"/>
<use x="157.419025" y="67.546657" xlink:href="#g3-59"/>
<use x="70.734745" y="84.483145" xlink:href="#g1-83"/>
<use x="77.934085" y="86.276409" xlink:href="#g2-50"/>
<use x="85.987225" y="84.483145" xlink:href="#g3-61"/>
<use x="98.412706" y="84.483145" xlink:href="#g3-40"/>
<use x="102.965032" y="84.483145" xlink:href="#g1-83"/>
<use x="110.164372" y="86.276409" xlink:href="#g2-49"/>
<use x="117.55335" y="84.483145" xlink:href="#g0-0"/>
<use x="129.50851" y="84.483145" xlink:href="#g1-65"/>
<use x="138.283857" y="86.276409" xlink:href="#g2-49"/>
<use x="142.51804" y="86.276409" xlink:href="#g2-49"/>
<use x="147.250355" y="84.483145" xlink:href="#g3-41"/>
<use x="151.802681" y="84.483145" xlink:href="#g3-59"/>
<use x="70.734745" y="101.419634" xlink:href="#g1-83"/>
<use x="77.934085" y="103.212897" xlink:href="#g2-51"/>
<use x="85.987225" y="101.419634" xlink:href="#g3-61"/>
<use x="98.412706" y="101.419634" xlink:href="#g3-40"/>
<use x="102.965032" y="101.419634" xlink:href="#g1-65"/>
<use x="111.740378" y="103.212897" xlink:href="#g2-49"/>
<use x="115.974561" y="103.212897" xlink:href="#g2-49"/>
<use x="123.36354" y="101.419634" xlink:href="#g0-0"/>
<use x="135.3187" y="101.419634" xlink:href="#g1-65"/>
<use x="144.094047" y="103.212897" xlink:href="#g2-50"/>
<use x="148.32823" y="103.212897" xlink:href="#g2-49"/>
<use x="153.060544" y="101.419634" xlink:href="#g3-41"/>
<use x="157.61287" y="101.419634" xlink:href="#g3-59"/>
<use x="70.734745" y="118.356122" xlink:href="#g1-83"/>
<use x="77.934085" y="120.149385" xlink:href="#g2-52"/>
<use x="85.987225" y="118.356122" xlink:href="#g3-61"/>
<use x="98.412706" y="118.356122" xlink:href="#g3-40"/>
<use x="102.965032" y="118.356122" xlink:href="#g1-65"/>
<use x="111.740378" y="120.149385" xlink:href="#g2-49"/>
<use x="115.974561" y="120.149385" xlink:href="#g2-50"/>
<use x="123.36354" y="118.356122" xlink:href="#g0-0"/>
<use x="135.3187" y="118.356122" xlink:href="#g1-83"/>
<use x="142.51804" y="120.149385" xlink:href="#g2-50"/>
<use x="147.250355" y="118.356122" xlink:href="#g3-41"/>
<use x="151.802681" y="118.356122" xlink:href="#g3-59"/>
<use x="70.734745" y="135.29261" xlink:href="#g1-83"/>
<use x="77.934085" y="137.085873" xlink:href="#g2-53"/>
<use x="85.987225" y="135.29261" xlink:href="#g3-61"/>
<use x="98.412706" y="135.29261" xlink:href="#g3-40"/>
<use x="102.965032" y="135.29261" xlink:href="#g1-66"/>
<use x="111.857995" y="137.085873" xlink:href="#g2-49"/>
<use x="116.092177" y="137.085873" xlink:href="#g2-50"/>
<use x="123.481156" y="135.29261" xlink:href="#g0-0"/>
<use x="135.436316" y="135.29261" xlink:href="#g1-66"/>
<use x="144.329279" y="137.085873" xlink:href="#g2-49"/>
<use x="148.563462" y="137.085873" xlink:href="#g2-49"/>
<use x="153.295777" y="135.29261" xlink:href="#g3-41"/>
<use x="157.848103" y="135.29261" xlink:href="#g3-59"/>
<use x="70.734745" y="152.229098" xlink:href="#g1-83"/>
<use x="77.934085" y="154.022361" xlink:href="#g2-54"/>
<use x="85.987225" y="152.229098" xlink:href="#g3-61"/>
<use x="98.412706" y="152.229098" xlink:href="#g3-40"/>
<use x="102.965032" y="152.229098" xlink:href="#g1-66"/>
<use x="111.857995" y="154.022361" xlink:href="#g2-50"/>
<use x="116.092177" y="154.022361" xlink:href="#g2-50"/>
<use x="123.481156" y="152.229098" xlink:href="#g0-0"/>
<use x="135.436316" y="152.229098" xlink:href="#g1-83"/>
<use x="142.635656" y="154.022361" xlink:href="#g2-53"/>
<use x="147.367971" y="152.229098" xlink:href="#g3-41"/>
<use x="151.920297" y="152.229098" xlink:href="#g3-59"/>
<use x="70.734745" y="169.165586" xlink:href="#g1-83"/>
<use x="77.934085" y="170.958849" xlink:href="#g2-55"/>
<use x="85.987225" y="169.165586" xlink:href="#g3-61"/>
<use x="98.412706" y="169.165586" xlink:href="#g3-40"/>
<use x="102.965032" y="169.165586" xlink:href="#g1-66"/>
<use x="111.857995" y="170.958849" xlink:href="#g2-50"/>
<use x="116.092177" y="170.958849" xlink:href="#g2-50"/>
<use x="123.481156" y="169.165586" xlink:href="#g0-0"/>
<use x="135.436316" y="169.165586" xlink:href="#g1-66"/>
<use x="144.329279" y="170.958849" xlink:href="#g2-49"/>
<use x="148.563462" y="170.958849" xlink:href="#g2-50"/>
<use x="153.295777" y="169.165586" xlink:href="#g3-41"/>
<use x="157.848103" y="169.165586" xlink:href="#g3-59"/>
<use x="70.734745" y="186.102074" xlink:href="#g1-83"/>
<use x="77.934085" y="187.895338" xlink:href="#g2-56"/>
<use x="85.987225" y="186.102074" xlink:href="#g3-61"/>
<use x="98.412706" y="186.102074" xlink:href="#g3-40"/>
<use x="102.965032" y="186.102074" xlink:href="#g1-83"/>
<use x="110.164372" y="187.895338" xlink:href="#g2-54"/>
<use x="117.55335" y="186.102074" xlink:href="#g0-0"/>
<use x="129.50851" y="186.102074" xlink:href="#g1-66"/>
<use x="138.401473" y="187.895338" xlink:href="#g2-50"/>
<use x="142.635656" y="187.895338" xlink:href="#g2-49"/>
<use x="147.367971" y="186.102074" xlink:href="#g3-41"/>
<use x="151.920297" y="186.102074" xlink:href="#g1-58"/>
</g>
</svg>
